Omega Gender Equality
…
# 95% confidence interval does not include 0, therefore must reject the null hypothesis
# hypothesis testing using infer package

salary_in_null_world <- omega %>% 
  specify(salary ~ gender) %>% 
  hypothesise(null = "independence") %>% 
  generate(reps = 1000, type = "permute") %>%
  calculate(stat = "diff in means",
            order = c("male", "female"))
salary_in_null_world

## # A tibble: 1,000 x 2
##    replicate     stat
##        <int>    <dbl>
##  1         1    92.9 
##  2         2 -1701.  
##  3         3 -3527.  
##  4         4    -6.28
##  5         5  -411.  
##  6         6   465.  
##  7         7  1101.  
##  8         8  2382.  
##  9         9 -1287.  
## 10        10 -1205.  
## #  with 990 more rows
…
# 95% confidence interval does not include 0, therefore must reject the null hypothesis
# hypothesis testing using infer package

experience_in_null_world <- omega %>% 
  specify(experience ~ gender) %>% 
  hypothesise(null = "independence") %>% 
  generate(reps = 1000, type = "permute") %>%
  calculate(stat = "diff in means",
            order = c("male", "female"))
experience_in_null_world

## # A tibble: 1,000 x 2
##    replicate   stat
##        <int>  <dbl>
##  1         1  0.519
##  2         2 -3.65 
##  3         3 -4.85 
##  4         4  1.32 
##  5         5 -1.48 
##  6         6 -2.12 
##  7         7  0.599
##  8         8  0.760
##  9         9 -3.97 
## 10        10  0.359
## #  with 990 more rows
…
