TFL Bike Rentals
…
# calculating the actual mean of bikes hired.    
actual_monthly_rides <- bike %>% 
  group_by(year, month) %>% 
  summarise(mean_actual_rides = mean(bikes_hired)) 

actual_monthly_rides

## # A tibble: 68 x 3
## # Groups:   year [6]
##     year month mean_actual_rides
##    <dbl> <ord>             <dbl>
##  1  2015 Jan              18828.
##  2  2015 Feb              19617.
##  3  2015 Mar              22625.
##  4  2015 Apr              27951.
##  5  2015 May              29031.
##  6  2015 Jun              34659.
##  7  2015 Jul              36607.
##  8  2015 Aug              33643.
##  9  2015 Sep              30114.
## 10  2015 Oct              28560.
## #  with 58 more rows
…
